{
  "response_list_default": {
    "content": [
      {
        "id": 1,
        "year": 1980,
        "title": "Can't Stop the Music",
        "studios": [
          "Associated Film Distribution"
        ],
        "producers": [
          "Allan Carr"
        ],
        "winner": true
      },
      {
        "id": 2,
        "year": 1980,
        "title": "Cruising",
        "studios": [
          "Lorimar Productions",
          "United Artists"
        ],
        "producers": [
          "Jerry Weintraub"
        ],
        "winner": false
      },
      {
        "id": 3,
        "year": 1980,
        "title": "The Formula",
        "studios": [
          "MGM",
          "United Artists"
        ],
        "producers": [
          "Steve Shagan"
        ],
        "winner": false
      },
      {
        "id": 4,
        "year": 1980,
        "title": "Friday the 13th",
        "studios": [
          "Paramount Pictures"
        ],
        "producers": [
          "Sean S. Cunningham"
        ],
        "winner": false
      },
      {
        "id": 5,
        "year": 1980,
        "title": "The Nude Bomb",
        "studios": [
          "Universal Studios"
        ],
        "producers": [
          "Jennings Lang"
        ],
        "winner": false
      },
      {
        "id": 6,
        "year": 1980,
        "title": "The Jazz Singer",
        "studios": [
          "Associated Film Distribution"
        ],
        "producers": [
          "Jerry Leider"
        ],
        "winner": false
      },
      {
        "id": 7,
        "year": 1980,
        "title": "Raise the Titanic",
        "studios": [
          "Associated Film Distribution"
        ],
        "producers": [
          "William Frye"
        ],
        "winner": false
      },
      {
        "id": 8,
        "year": 1980,
        "title": "Saturn 3",
        "studios": [
          "Associated Film Distribution"
        ],
        "producers": [
          "Stanley Donen"
        ],
        "winner": false
      },
      {
        "id": 9,
        "year": 1980,
        "title": "Windows",
        "studios": [
          "United Artists"
        ],
        "producers": [
          "Mike Lobell"
        ],
        "winner": false
      },
      {
        "id": 10,
        "year": 1980,
        "title": "Xanadu",
        "studios": [
          "Universal Studios"
        ],
        "producers": [
          "Lawrence Gordon"
        ],
        "winner": false
      },
      {
        "id": 11,
        "year": 1981,
        "title": "Mommie Dearest",
        "studios": [
          "Paramount Pictures"
        ],
        "producers": [
          "Frank Yablans"
        ],
        "winner": true
      },
      {
        "id": 12,
        "year": 1981,
        "title": "Endless Love",
        "studios": [
          "PolyGram",
          "Universal Studios"
        ],
        "producers": [
          "Dyson Lovell"
        ],
        "winner": false
      },
      {
        "id": 13,
        "year": 1981,
        "title": "Heaven's Gate",
        "studios": [
          "United Artists"
        ],
        "producers": [
          "Joann Carelli"
        ],
        "winner": false
      },
      {
        "id": 14,
        "year": 1981,
        "title": "The Legend of the Lone Ranger",
        "studios": [
          "Associated Film Distribution",
          "Universal Studios"
        ],
        "producers": [
          "Walter Coblenz"
        ],
        "winner": false
      },
      {
        "id": 15,
        "year": 1981,
        "title": "Tarzan, the Ape Man",
        "studios": [
          "MGM",
          "United Artists"
        ],
        "producers": [
          "John Derek"
        ],
        "winner": false
      }
    ],
    "pageable": {
      "sort": {
        "unsorted": true,
        "sorted": false,
        "empty": true
      },
      "offset": 0,
      "pageSize": 15,
      "pageNumber": 0,
      "unpaged": false,
      "paged": true
    },
    "last": false,
    "totalPages": 14,
    "totalElements": 206,
    "size": 15,
    "number": 0,
    "sort": {
      "unsorted": true,
      "sorted": false,
      "empty": true
    },
    "first": true,
    "numberOfElements": 15,
    "empty": false
  },
  "response_list_filter_year": {
    "content": [
      {
        "id": 26,
        "year": 1984,
        "title": "Bolero",
        "studios": [
          "Cannon Films"
        ],
        "producers": [
          "Bo Derek"
        ],
        "winner": true
      },
      {
        "id": 27,
        "year": 1984,
        "title": "Cannonball Run II",
        "studios": [
          "Warner Bros."
        ],
        "producers": [
          "Albert S. Ruddy"
        ],
        "winner": false
      },
      {
        "id": 28,
        "year": 1984,
        "title": "Rhinestone",
        "studios": [
          "20th Century Fox"
        ],
        "producers": [
          "Howard Smith",
          "Marvin Worth"
        ],
        "winner": false
      },
      {
        "id": 29,
        "year": 1984,
        "title": "Sheena",
        "studios": [
          "Columbia Pictures"
        ],
        "producers": [
          "Paul Aratow"
        ],
        "winner": false
      },
      {
        "id": 30,
        "year": 1984,
        "title": "Where the Boys Are '84",
        "studios": [
          "TriStar Pictures"
        ],
        "producers": [
          "Allan Carr"
        ],
        "winner": false
      }
    ],
    "pageable": {
      "sort": {
        "unsorted": true,
        "sorted": false,
        "empty": true
      },
      "offset": 0,
      "pageSize": 15,
      "pageNumber": 0,
      "unpaged": false,
      "paged": true
    },
    "last": true,
    "totalPages": 1,
    "totalElements": 5,
    "size": 15,
    "number": 0,
    "sort": {
      "unsorted": true,
      "sorted": false,
      "empty": true
    },
    "first": true,
    "numberOfElements": 5,
    "empty": false
  },
  "response_list_filter_winner": {
    "content": [
      {
        "id": 1,
        "year": 1980,
        "title": "Can't Stop the Music",
        "studios": [
          "Associated Film Distribution"
        ],
        "producers": [
          "Allan Carr"
        ],
        "winner": true
      },
      {
        "id": 11,
        "year": 1981,
        "title": "Mommie Dearest",
        "studios": [
          "Paramount Pictures"
        ],
        "producers": [
          "Frank Yablans"
        ],
        "winner": true
      },
      {
        "id": 16,
        "year": 1982,
        "title": "Inchon",
        "studios": [
          "MGM"
        ],
        "producers": [
          "Mitsuharu Ishii"
        ],
        "winner": true
      },
      {
        "id": 21,
        "year": 1983,
        "title": "The Lonely Lady",
        "studios": [
          "Universal Studios"
        ],
        "producers": [
          "Robert R. Weston"
        ],
        "winner": true
      },
      {
        "id": 26,
        "year": 1984,
        "title": "Bolero",
        "studios": [
          "Cannon Films"
        ],
        "producers": [
          "Bo Derek"
        ],
        "winner": true
      },
      {
        "id": 31,
        "year": 1985,
        "title": "Rambo: First Blood Part II",
        "studios": [
          "Columbia Pictures"
        ],
        "producers": [
          "Buzz Feitshans"
        ],
        "winner": true
      },
      {
        "id": 36,
        "year": 1986,
        "title": "Howard the Duck",
        "studios": [
          "Universal Studios"
        ],
        "producers": [
          "Gloria Katz"
        ],
        "winner": true
      },
      {
        "id": 37,
        "year": 1986,
        "title": "Under the Cherry Moon",
        "studios": [
          "Warner Bros."
        ],
        "producers": [
          "Bob Cavallo",
          "Joe Ruffalo",
          "Steve Fargnoli"
        ],
        "winner": true
      },
      {
        "id": 41,
        "year": 1987,
        "title": "Leonard Part 6",
        "studios": [
          "Columbia Pictures"
        ],
        "producers": [
          "Bill Cosby"
        ],
        "winner": true
      },
      {
        "id": 46,
        "year": 1988,
        "title": "Cocktail",
        "studios": [
          "Touchstone Pictures"
        ],
        "producers": [
          "Robert W. Cort",
          "Ted Field"
        ],
        "winner": true
      },
      {
        "id": 51,
        "year": 1989,
        "title": "Star Trek V: The Final Frontier",
        "studios": [
          "Paramount Pictures"
        ],
        "producers": [
          "Harve Bennett"
        ],
        "winner": true
      },
      {
        "id": 56,
        "year": 1990,
        "title": "The Adventures of Ford Fairlane",
        "studios": [
          "20th Century Fox"
        ],
        "producers": [
          "Joel Silver",
          "Steven Perry"
        ],
        "winner": true
      },
      {
        "id": 57,
        "year": 1990,
        "title": "Ghosts Can't Do It",
        "studios": [
          "Triumph Releasing"
        ],
        "producers": [
          "Bo Derek"
        ],
        "winner": true
      },
      {
        "id": 61,
        "year": 1991,
        "title": "Hudson Hawk",
        "studios": [
          "TriStar Pictures"
        ],
        "producers": [
          "Joel Silver"
        ],
        "winner": true
      },
      {
        "id": 66,
        "year": 1992,
        "title": "Shining Through",
        "studios": [
          "20th Century Fox"
        ],
        "producers": [
          "Carol Baum",
          "Howard Rosenman"
        ],
        "winner": true
      }
    ],
    "pageable": {
      "sort": {
        "unsorted": true,
        "sorted": false,
        "empty": true
      },
      "offset": 0,
      "pageSize": 15,
      "pageNumber": 0,
      "unpaged": false,
      "paged": true
    },
    "last": false,
    "totalPages": 3,
    "totalElements": 42,
    "size": 15,
    "number": 0,
    "sort": {
      "unsorted": true,
      "sorted": false,
      "empty": true
    },
    "first": true,
    "numberOfElements": 15,
    "empty": false
  },
  "response_list_filter_winner_page2": {
    "content": [
      {
        "id": 71,
        "year": 1993,
        "title": "Indecent Proposal",
        "studios": [
          "Paramount Pictures"
        ],
        "producers": [
          "Sherry Lansing"
        ],
        "winner": true
      },
      {
        "id": 76,
        "year": 1994,
        "title": "Color of Night",
        "studios": [
          "Hollywood Pictures"
        ],
        "producers": [
          "Buzz Feitshans",
          "David Matalon"
        ],
        "winner": true
      },
      {
        "id": 81,
        "year": 1995,
        "title": "Showgirls",
        "studios": [
          "MGM",
          "United Artists"
        ],
        "producers": [
          "Alan Marshall",
          "Charles Evans"
        ],
        "winner": true
      },
      {
        "id": 86,
        "year": 1996,
        "title": "Striptease",
        "studios": [
          "Castle Rock Entertainment",
          "Columbia Pictures"
        ],
        "producers": [
          "Andrew Bergman",
          "Mike Lobell"
        ],
        "winner": true
      },
      {
        "id": 91,
        "year": 1997,
        "title": "The Postman",
        "studios": [
          "Warner Bros."
        ],
        "producers": [
          "Jim Wilson",
          "Kevin Costner",
          "Steve Tisch"
        ],
        "winner": true
      },
      {
        "id": 96,
        "year": 1998,
        "title": "An Alan Smithee Film: Burn Hollywood Burn",
        "studios": [
          "Hollywood Pictures"
        ],
        "producers": [
          "Ben Myron",
          "Joe Eszterhas"
        ],
        "winner": true
      },
      {
        "id": 101,
        "year": 1999,
        "title": "Wild Wild West",
        "studios": [
          "Warner Bros."
        ],
        "producers": [
          "Barry Sonnenfeld",
          "Jon Peters"
        ],
        "winner": true
      },
      {
        "id": 106,
        "year": 2000,
        "title": "Battlefield Earth",
        "studios": [
          "Franchise Pictures",
          "Warner Bros."
        ],
        "producers": [
          "Elie Samaha",
          "John Travolta",
          "Jonathan D. Krane"
        ],
        "winner": true
      },
      {
        "id": 111,
        "year": 2001,
        "title": "Freddy Got Fingered",
        "studios": [
          "20th Century Fox"
        ],
        "producers": [
          "Howard Lapides",
          "Larry Brezner",
          "Lauren Lloyd"
        ],
        "winner": true
      },
      {
        "id": 116,
        "year": 2002,
        "title": "Swept Away",
        "studios": [
          "Screen Gems"
        ],
        "producers": [
          "Matthew Vaughn"
        ],
        "winner": true
      },
      {
        "id": 121,
        "year": 2003,
        "title": "Gigli",
        "studios": [
          "Columbia Pictures",
          "Revolution Studios"
        ],
        "producers": [
          "Casey Silver",
          "Martin Brest"
        ],
        "winner": true
      },
      {
        "id": 126,
        "year": 2004,
        "title": "Catwoman",
        "studios": [
          "Warner Bros."
        ],
        "producers": [
          "Denise Di Novi",
          "Edward McDonnell"
        ],
        "winner": true
      },
      {
        "id": 131,
        "year": 2005,
        "title": "Dirty Love",
        "studios": [
          "First Look Pictures"
        ],
        "producers": [
          "BJ Davis",
          "Jenny McCarthy",
          "John Mallory Asher",
          "Kimberley Kates",
          "Michael Manasseri",
          "Rod Hamilton",
          "Trent Walford"
        ],
        "winner": true
      },
      {
        "id": 136,
        "year": 2006,
        "title": "Basic Instinct 2",
        "studios": [
          "C2 Pictures",
          "MGM"
        ],
        "producers": [
          "Andrew G. Vajna",
          "Joel B. Michaels",
          "Mario Kassar"
        ],
        "winner": true
      },
      {
        "id": 146,
        "year": 2008,
        "title": "The Love Guru",
        "studios": [
          "Paramount Pictures"
        ],
        "producers": [
          "Gary Barber",
          "Michael DeLuca",
          "Mike Myers"
        ],
        "winner": true
      }
    ],
    "pageable": {
      "sort": {
        "unsorted": true,
        "sorted": false,
        "empty": true
      },
      "offset": 15,
      "pageSize": 15,
      "pageNumber": 1,
      "unpaged": false,
      "paged": true
    },
    "last": false,
    "totalPages": 3,
    "totalElements": 42,
    "size": 15,
    "number": 1,
    "sort": {
      "unsorted": true,
      "sorted": false,
      "empty": true
    },
    "first": false,
    "numberOfElements": 15,
    "empty": false
  },
  "response_list_filter_winner_page3": {
    "content": [
      {
        "id": 151,
        "year": 2009,
        "title": "Transformers: Revenge of the Fallen",
        "studios": [
          "DreamWorks",
          "Hasbro",
          "Paramount Pictures"
        ],
        "producers": [
          "Don Murphy",
          "Ian Bryce",
          "Lorenzo di Bonaventura",
          "Tom DeSanto"
        ],
        "winner": true
      },
      {
        "id": 156,
        "year": 2010,
        "title": "The Last Airbender",
        "studios": [
          "Nickelodeon Movies",
          "Paramount Pictures"
        ],
        "producers": [
          "Frank Marshall",
          "Kathleen Kennedy",
          "M. Night Shyamalan",
          "Sam Mercer"
        ],
        "winner": true
      },
      {
        "id": 161,
        "year": 2011,
        "title": "Jack and Jill",
        "studios": [
          "Columbia Pictures"
        ],
        "producers": [
          "Adam Sandler",
          "Jack Giarraputo",
          "Todd Garner"
        ],
        "winner": true
      },
      {
        "id": 166,
        "year": 2012,
        "title": "The Twilight Saga: Breaking Dawn – Part 2",
        "studios": [
          "Summit Entertainment"
        ],
        "producers": [
          "Karen Rosenfelt",
          "Stephenie Meyer",
          "Wyck Godfrey"
        ],
        "winner": true
      },
      {
        "id": 171,
        "year": 2013,
        "title": "Movie 43",
        "studios": [
          "Relativity Media"
        ],
        "producers": [
          "Charles B. Wessler",
          "John Penotti",
          "Peter Farrelly",
          "Ryan Kavanaugh"
        ],
        "winner": true
      },
      {
        "id": 176,
        "year": 2014,
        "title": "Saving Christmas",
        "studios": [
          "Samuel Goldwyn Films"
        ],
        "producers": [
          "Amanda Rosser",
          "Darren Doane",
          "David Shannon",
          "Raphi Henley"
        ],
        "winner": true
      },
      {
        "id": 181,
        "year": 2015,
        "title": "Fantastic Four",
        "studios": [
          "20th Century Fox"
        ],
        "producers": [
          "Gregory Goodman",
          "Hutch Parker",
          "Matthew Vaughn",
          "Robert Kulzer",
          "Simon Kinberg"
        ],
        "winner": true
      },
      {
        "id": 182,
        "year": 2015,
        "title": "Fifty Shades of Grey",
        "studios": [
          "Focus Features",
          "Universal Pictures"
        ],
        "producers": [
          "Dana Brunetti",
          "E. L. James",
          "Michael De Luca"
        ],
        "winner": true
      },
      {
        "id": 186,
        "year": 2016,
        "title": "Hillary's America: The Secret History of the Democratic Party",
        "studios": [
          "Quality Flix"
        ],
        "producers": [
          "Gerald R. Molen"
        ],
        "winner": true
      },
      {
        "id": 192,
        "year": 2017,
        "title": "The Emoji Movie",
        "studios": [
          "Columbia Pictures"
        ],
        "producers": [
          "Michelle Raimo Kouyate"
        ],
        "winner": true
      },
      {
        "id": 197,
        "year": 2018,
        "title": "Holmes & Watson",
        "studios": [
          "Columbia Pictures"
        ],
        "producers": [
          "Adam McKay",
          "Clayton Townsend",
          "Jimmy Miller",
          "Will Ferrell"
        ],
        "winner": true
      },
      {
        "id": 202,
        "year": 2019,
        "title": "Cats",
        "studios": [
          "Universal Pictures"
        ],
        "producers": [
          "Debra Hayward",
          "Eric Fellner",
          "Tim Bevan",
          "and Tom Hooper"
        ],
        "winner": true
      }
    ],
    "pageable": {
      "sort": {
        "unsorted": true,
        "sorted": false,
        "empty": true
      },
      "offset": 30,
      "pageSize": 15,
      "pageNumber": 2,
      "unpaged": false,
      "paged": true
    },
    "last": true,
    "totalPages": 3,
    "totalElements": 42,
    "size": 15,
    "number": 2,
    "sort": {
      "unsorted": true,
      "sorted": false,
      "empty": true
    },
    "first": false,
    "numberOfElements": 12,
    "empty": false
  },
  "response_list_filter_both": {
    "content": [
      {
        "id": 26,
        "year": 1984,
        "title": "Bolero",
        "studios": [
          "Cannon Films"
        ],
        "producers": [
          "Bo Derek"
        ],
        "winner": true
      }
    ],
    "pageable": {
      "sort": {
        "unsorted": true,
        "sorted": false,
        "empty": true
      },
      "offset": 0,
      "pageSize": 15,
      "pageNumber": 0,
      "unpaged": false,
      "paged": true
    },
    "last": true,
    "totalPages": 1,
    "totalElements": 1,
    "size": 15,
    "number": 0,
    "sort": {
      "unsorted": true,
      "sorted": false,
      "empty": true
    },
    "first": true,
    "numberOfElements": 1,
    "empty": false
  }
}
